{
	"schemaVersion": 1,
	"id": "fear-of-death",
	"version": "${version}",
	"name": "Fear Of Death",
	"description": "New monsters do not appear where they often died",
	"authors": [
		"Me!"
	],
	"contact": {
		"homepage": "https://fabricmc.net/",
		"sources": "https://github.com/FabricMC/fabric-example-mod"
	},
	"license": "CC0-1.0",
	"icon": "assets/fear-of-death/icon.png",
	"environment": "*",
	"entrypoints": {
		"main": [
			{
				"value": "casperix.fear_of_death.FearOfDeathMod",
				"adapter": "kotlin"
			}
		],
		"client": [
			{
				"value": "casperix.fear_of_death.FearOfDeathModClient",
				"adapter": "kotlin"
			}
		]
	},
	"mixins": [
		"fear-of-death.mixins.json",
		{
			"config": "fear-of-death.client.mixins.json",
			"environment": "client"
		}
	],
	"depends": {
		"fabricloader": ">=0.14.21",
		"minecraft": "~1.19.2",
		"java": ">=17",
		"fabric-api": "*",
		"fabric-language-kotlin": ">=1.8.21"
	},
	"suggests": {
		"another-mod": "*"
	}
}